INDEX VERSION 1.130+C:\U\SpringBoootInAction\.metadata\.plugins\org.eclipse.jdt.core
2434224191.index
915253802.index
4231327681.index
4082274159.index
3256147762.index
1109467458.index
2536229158.index
1205498633.index
2616005691.index
46496372.index
2329150079.index
3713880787.index
4290490694.index
916900781.index
1926520443.index
1461036062.index
879966436.index
710797068.index
2043626465.index
1177904427.index
615727794.index
290667967.index
2859489201.index
880317749.index
786281597.index
3609888128.index
546063283.index
2709029302.index
1039517005.index
2083239459.index
1919482482.index
2622456183.index
949300865.index
3697869014.index
1351527832.index
3443584623.index
3806540528.index
2975477564.index
2872033403.index
1520356306.index
1207607737.index
1172447904.index
4154644517.index
1093488887.index
890887124.index
3549343418.index
254075049.index
3384311228.index
3383342274.index
637215195.index
1104224641.index
806062888.index
3380085472.index
4137158866.index
3108591727.index
1586126172.index
3183329209.index
1106215270.index
4151342833.index
3445137462.index
1170101041.index
3636390064.index
3125076553.index
3481330720.index
1713138912.index
4229349622.index
1934906345.index
2039471044.index
2370660634.index
1857667707.index
100574398.index
4121661813.index
823384711.index
3363692690.index
375718211.index
1426934567.index
1377079352.index
3613049573.index
3405511142.index
3925750420.index
728743212.index
3883533638.index
7778484.index
642617765.index
3543955615.index
2669984587.index
2088728460.index
654547487.index
4131690457.index
439045707.index
455433315.index
2569137926.index
3487609244.index
2933073159.index
2770263961.index
1177859970.index
3273689814.index
1647327143.index
316083973.index
2066268749.index
1550625918.index
1204375214.index
